{
	"global": {
		"security"    : "true",
		"server_port" : "10000", 
		"tcp_port"    : "11000"
	},
	"main": {
		"header" : "<h4>SAGE2 Control Interface</h4>",
		"footer" : "<h4>SAGE2 Control Interface</h4>",
		"image" : "images/sage2.jpg",
		"image_style" : "width=\"90%\" style=\"max-width:450px;margin: 0 auto;\"",
		"pages" : [ "SAGE2", "Admin" ]
	},
	"actions": {
		"sage2-on":          { "script":  "scripts\\sage2_on.bat" },
		"sage2-off":         { "script":  "scripts\\sage2_off.bat" },
		"edit-config":       { "editor":  "~/Documents/SAGE2_Media/config/defaultWin-cfg.json" },
		"edit-form":         { "openurl": "form.html?action=edit-config" },

		"submitMA":          { "sendData": "forMA", "dataID": "inputMA", "sendPurpose": "makeNewMeetingID" },
		"inputMA":           { "ignore" :  "Not sending"},

		"submitLP":          { "sendData": "forLP", "dataID": "inputLP", "sendPurpose": "makeNewLauncherPassword" },
		"inputLP":           { "ignore" :  "Not sending"},

		"updateSage":          { "sendData": "forMA", "dataID": "inputMA", "sendPurpose": "performGitUpdate" },

		"notepad-on":        { "command": "start notepad" },
		"notepad-off":       { "command": "Taskkill /IM notepad.exe /F" },
		"firefox-on":        { "command": "start firefox" },
		"firefox-off":       { "command": "Taskkill /IM firefox.exe /F" }
	},

	"SAGE2" : {
		"title"  : "SAGE2",
		"navbar" : "true",
		"image" : "images/sage2.jpg",
		"groups" : [ "group1", "setMA" ],
		"group1" : { 
			"title": "Launch SAGE2",
			"description": "Start and stop SAGE2. You can also set a meeting access code to protect access to your meeting.",
			"image": "images/display.png",
			"actions": [
				{"title": "Start", "action": "sage2-on" },
				{"title": "Stop",  "action": "sage2-off"}
			]
		},
		"setMA" : { 
			"title": "Set Meeting Access",
			"description": "Allows changing the Meeting ID. SAGE2 must be restarted before changes take effect.",
			"image": "images/settings.png",
			"actions": [
				{"title": "", "action": "inputMA", "role": "inputPassword", "placeholder":"Enter new MeetingID here"},
				{"title": "Set Meeting Access", "action": "submitMA", "theme": "b"}
			]
		}
	},

	"Admin" : {
		"title"  : "Admin",
		"navbar" : "true",
		"groups" : [ "group2", "update" ],
		"group2" : {
			"title": "Configure SAGE2",
			"image": "images/settings.png",
			"description": "Allows to edit your wall configuration. Simple edits can be done using a form in <em>basic</em> mode. You can also edit the file in <em>expert</em> mode. The launcher password can be changed in the form of sage2:sabi:xxxx.",
			"actions": [
				{"title": "Wall configuration - <em>basic</em>", "action": "edit-form" },
				{"title": "Wall configuration -  <em>expert</em>", "action": "edit-config" },
				{"title": "", "action": "inputLP", "role": "inputPassword", "placeholder":"Enter new launcher password"},
				{"title": "Reset launcher password", "action": "submitLP", "theme": "b"}
			]
		},
		"update" : {
			"title": "Update SAGE2",
			"image": "images/settings.png",
			"description": "Choosing to update will edit the startup file and then restart the computer.<br> Be sure to save all work before updating.",
			"actions": [
				{"title": "Update (will cause the computer to restart)", "action": "updateSage" }
			]
		}
	}
}
