{
	"host": "thor.evl.uic.edu",
	"port": 5050,
	"index_port": 5252,
	"background": {
		"color": "#333333"
	},
	"ui": {
		"clock": 12,
		"show_url": true,
		"show_version": true
	},
	"resolution": {
		"width": 1536,
		"height": 1360
	},
	"layout": {
		"rows": 1,
		"columns": 1
	},
	"displays": [
		{
			"row": 0,
			"column": 0
		}
	],
	"alternate_hosts": [
		"localhost",
		"127.0.0.1"
	],
	"remote_sites": [
		{
			"name": "Cyber-Commons",
			"host": "iridium.evl.uic.edu",
			"port": 443,
			"secure": true
		},
		{
			"name": "CAVE2",
			"host": "lyra.evl.uic.edu",
			"port": 443,
			"secure": true
		}
	]
}
