{
	"host": "131.193.77.235",
	"port": 9090,
	"index_port": 80,
	"background": {
		"image": {
			"url": "images/background/evl1.jpg",
			"style": "fit"
		}
	},
	"ui": {
		"clock": 24,
		"show_url": true,
		"show_version": true
	},
	"resolution": {
		"width": 2560,
		"height": 1600
	},
	"layout": {
		"rows": 1,
		"columns": 1
	},
	"displays": [
		{
			"row": 0,
			"column": 0
		}
	],
	"alternate_hosts": [
		"localhost",
		"127.0.0.1"
	],
	"remote_sites": [
		{
			"name": "IceWallTM",
			"host": "thor.evl.uic.edu",
			"port": 7070,
			"secure": true
		},
		{
			"name": "Cyber-Commons",
			"host": "iridium.evl.uic.edu",
			"port": 443,
			"secure": true
		},
		{
			"name": "CAVE2",
			"host": "lyra.evl.uic.edu",
			"port": 443,
			"secure": true
		}
	],
        // list of extra folders for assets and apps
        //  sage2 and home directory are default
        folders: [
                {
                        name: "another",
                        url: "/another",
                        path: "/Users/luc/Desktop/another/",
                        upload: true
                },
                {
                        name: "another1",
                        url: "/another1",
                        path: "/Users/luc/Desktop/another1/",
                        upload: false
                }
        ]
}
